…
``` r
# Display species names in scientific notation
po <- options(fe_spec_lang = "sci")

# mm_forest_1_fe_stand_spatial is an example stand that comes with 
# ForestElementsR. Its single trees can be accessed and viewed as follows:
mm_forest_1_fe_stand_spatial$trees
```

    ## # A tibble: 353 × 12
    ##    tree_id species_id   layer_key time_yr age_yr dbh_cm height_m
    ##    <chr>   <tm_wwk_lng>     <dbl>   <int>  <dbl>  <dbl>    <dbl>
    ##  1 3       Picea abies          1    1975     NA   44.1     30.9
    ##  2 6       Picea abies          1    1975     NA   60.7     33.6
    ##  3 8       Picea abies          1    1975     NA   38.4     29.2
    ##  4 12      Picea abies          1    1975     NA   34.6     27.8
    ##  5 17      Picea abies          1    1975     NA   36.9     28.7
    ##  6 18      Picea abies          1    1975     NA   28.5     24.9
    ##  7 22      Picea abies          1    1975     NA   52.1     32.5
    ##  8 25      Picea abies          1    1975     NA   54.1     32.8
    ##  9 35      Picea abies          1    1975     NA   37.8     29.0
    ## 10 41      Picea abies          1    1975     NA   62.3     33.7
    ## # ℹ 343 more rows
    ## # ℹ 5 more variables: crown_base_height_m <dbl>, crown_radius_m <dbl>,
    ## #   removal <lgl>, ingrowth <lgl>, n_rep_ha <dbl>
…
