The Package ForestElementsR
…
# spruce_beech_1_fe_stand is one of the included example objects, 
# for an overview, type "?example_data"
spruce_beech_1_fe_stand
#> $stand_id
#> [1] "spruce_beech_1"
#> 
#> $area_ha
#> [1] 0.49
#> 
#> $trees
#> # A tibble: 225 × 12
#>    tree_id species_id    layer_key time_yr age_yr dbh_cm height_m
#>    <chr>   <tm_wwk_shrt>     <dbl>   <dbl>  <dbl>  <dbl>    <dbl>
#>  1 1       1                     1    2022     75   26.3     27.5
#>  2 2       1                     1    2022     75   34.8     30.9
#>  3 3       1                     1    2022     75   34.1     32.1
#>  4 4       1                     1    2022     75   33.6     32.7
#>  5 5       1                     1    2022     75   27.5     29.7
#>  6 6       1                     1    2022     75   30       30  
#>  7 7       1                     1    2022     75   32.8     31.2
#>  8 8       1                     1    2022     75   34.8     30.9
#>  9 9       1                     1    2022     75   33.6     29.9
#> 10 10      1                     1    2022     75   38.5     31.5
#> # ℹ 215 more rows
#> # ℹ 5 more variables: crown_base_height_m <dbl>, crown_radius_m <dbl>,
#> #   removal <lgl>, ingrowth <lgl>, n_rep_ha <dbl>
…
oo <- options(fe_spec_lang = "sci")       # display scientific species names

# Example: A mixed mountain forest plot in the Bavarian Alps;
# for an overview, type "?example_data"
mm_forest_1_fe_stand_spatial |> summary() # Give a summary of stand-level values
#> # A tibble: 22 × 9
#> # Groups:   time_yr [5]
#>    time_yr species_id          stem_number_ha basal_area_m2_ha d_q_cm d_dom_cm
#>      <int> <tm_wwk_lng>                 <dbl>            <dbl>  <dbl>    <dbl>
#>  1    1975 Picea abies                  143.             21.4    43.6     60.3
#>  2    1975 Abies alba                   101.              6.16   27.8     42.5
#>  3    1975 Fagus sylvatica              161.              3.83   17.4     29.5
#>  4    1975 Acer pseudoplatanus          101.              3.55   21.1     27.2
#>  5    1984 Picea abies                   71.6            14.1    50.2     64.0
#>  6    1984 Abies alba                    53.7             3.47   28.7     46.6
#>  7    1984 Fagus sylvatica               89.5             3.22   21.4     36.7
#>  8    1984 Acer pseudoplatanus           59.7             2.54   23.3     31.4
#>  9    1995 Picea abies                   71.6            15.8    52.9     67.6
#> 10    1995 Abies alba                    41.8             3.87   34.4     50.2
#> # ℹ 12 more rows
#> # ℹ 3 more variables: h_q_m <dbl>, h_dom_m <dbl>, v_m3_ha <dbl>
…
oo <- options(fe_spec_lang = "eng")

# Include all trees in evaluation with stand_sums_static
mm_forest_1_fe_stand_spatial |> stand_sums_static()
#> # A tibble: 22 × 9
#> # Groups:   time_yr [5]
#>    time_yr species_id     stem_number_ha basal_area_m2_ha d_q_cm d_dom_cm h_q_m
#>      <int> <tm_wwk_lng>            <dbl>            <dbl>  <dbl>    <dbl> <dbl>
#>  1    1975 Norway spruce           143.             21.4    43.6     60.3  31.2
#>  2    1975 silver fir              101.              6.16   27.8     42.5  23.9
#>  3    1975 European beech          161.              3.83   17.4     29.5  19.8
#>  4    1975 sycamore maple          101.              3.55   21.1     27.2  19.6
#>  5    1984 Norway spruce            71.6            14.1    50.2     64.0  34.3
#>  6    1984 silver fir               53.7             3.47   28.7     46.6  26.4
#>  7    1984 European beech           89.5             3.22   21.4     36.7  24.4
#>  8    1984 sycamore maple           59.7             2.54   23.3     31.4  22.8
#>  9    1995 Norway spruce            71.6            15.8    52.9     67.6  33.6
#> 10    1995 silver fir               41.8             3.87   34.4     50.2  26.7
#> # ℹ 12 more rows
#> # ℹ 2 more variables: h_dom_m <dbl>, v_m3_ha <dbl>

# For applying a filter, we must refer to the column names of the "trees" data 
# frame inside the fe_stand object. These are
mm_forest_1_fe_stand_spatial$trees |> names()
#>  [1] "tree_id"             "species_id"          "layer_key"          
#>  [4] "time_yr"             "age_yr"              "dbh_cm"             
#>  [7] "height_m"            "crown_base_height_m" "crown_radius_m"     
#> [10] "removal"             "ingrowth"            "n_rep_ha"

# Assume, we want to include only the trees that were not removed ...
mm_forest_1_fe_stand_spatial |> stand_sums_static(tree_filter = !removal)
#> # A tibble: 22 × 9
#> # Groups:   time_yr [5]
#>    time_yr species_id     stem_number_ha basal_area_m2_ha d_q_cm d_dom_cm h_q_m
#>      <int> <tm_wwk_lng>            <dbl>            <dbl>  <dbl>    <dbl> <dbl>
#>  1    1975 Norway spruce            71.6            12.6    47.3     60.9  31.8
#>  2    1975 silver fir               53.7             2.93   26.4     44.0  24.4
#>  3    1975 European beech           89.5             2.31   18.1     32.1  21.0
#>  4    1975 sycamore maple           59.7             2.22   21.8     28.5  20.0
#>  5    1984 Norway spruce            71.6            14.1    50.2     64.0  34.3
#>  6    1984 silver fir               41.8             3.29   31.7     47.5  27.2
#>  7    1984 European beech           89.5             3.22   21.4     36.7  24.4
#>  8    1984 sycamore maple           53.7             2.40   23.9     31.6  23.1
#>  9    1995 Norway spruce            71.6            15.8    52.9     67.6  33.6
#> 10    1995 silver fir               41.8             3.87   34.4     50.2  26.7
#> # ℹ 12 more rows
#> # ℹ 2 more variables: h_dom_m <dbl>, v_m3_ha <dbl>
…
